<?xml version="1.0" encoding="utf-8"?>
<svg version="1.0" width="600.000000pt" height="600.000000pt" viewBox="0 0 600.000000 600.000000" preserveAspectRatio="xMidYMid meet" xmlns="http://www.w3.org/2000/svg">
  <g transform="matrix(0, 0.1, 0.1, 0, -0.55, 0.549991)" fill="#000000" stroke="none">
    <path d="M2268 4823 l-3 -118 -242 -3 -243 -2 0 -120 0 -120 -120 0 -121 0 3 -122 3 -123 115 0 115 0 3 123 3 122 244 0 245 0 0 120 0 120 365 0 365 0 0 -244 0 -244 225 -1 c123 0 231 2 240 5 12 5 15 27 15 125 l0 119 -120 0 -120 0 0 120 0 120 -120 0 -120 0 0 120 0 120 -365 0 -364 0 -3 -117z"/>
    <path d="M1296 4212 c-3 -5 -5 -55 -5 -113 0 -57 0 -110 -1 -116 0 -10 -31 -13 -120 -13 l-120 0 0 -485 0 -485 125 0 125 0 0 485 0 484 118 3 117 3 3 123 3 122 -120 0 c-66 0 -122 -4 -125 -8z"/>
    <path d="M3482 4098 l3 -123 243 -3 243 -2 -3 -123 -3 -122 -347 -1 c-191 0 -351 -3 -354 -7 -4 -4 -12 -3 -18 2 -6 5 -282 6 -613 3 l-603 -5 0 -233 0 -233 123 -3 122 -3 0 -117 0 -118 603 0 602 0 0 -125 0 -125 125 0 125 0 0 -118 0 -119 -547 -6 c-302 -4 -632 -7 -735 -7 l-188 0 0 245 0 245 -480 0 c-450 0 -480 -1 -480 -17 -1 -10 0 -111 0 -224 0 -113 -2 -213 -6 -222 -5 -15 -23 -17 -125 -17 l-120 0 3 -122 3 -123 116 -3 116 -3 7 -167 c4 -92 6 -309 5 -482 l-1 -315 121 -3 121 -3 0 -119 0 -120 485 0 485 0 0 120 0 120 120 0 120 0 0 -120 0 -120 490 0 490 0 0 120 0 119 118 3 117 3 5 120 5 120 118 3 117 3 0 119 0 120 125 0 125 0 0 120 0 120 120 0 120 0 0 120 0 120 120 0 120 0 0 125 0 125 -120 0 -120 0 0 120 0 120 -120 0 -120 0 0 120 0 119 -122 3 -123 3 -3 483 -2 482 -120 0 -119 0 -3 123 -3 122 -243 3 -243 2 3 -122z m475 -720 c-1 -57 -3 -11 -3 102 0 113 2 159 3 103 2 -57 2 -149 0 -205z m-2167 -738 l0 -120 -125 0 -125 0 0 120 0 120 125 0 125 0 0 -120z m487 -470 c1 -58 2 -111 3 -117 0 -10 78 -13 355 -13 l355 0 0 120 0 120 368 -2 367 -3 0 -120 0 -120 -122 -3 -123 -3 0 -119 0 -120 -120 0 -120 0 0 -120 0 -120 245 0 245 0 0 120 0 121 118 -3 117 -3 3 -117 3 -118 -121 0 -120 0 0 -120 c0 -66 -3 -120 -7 -120 -5 0 -224 0 -488 0 l-480 -1 -3 241 -2 240 -360 0 -360 0 0 -120 0 -120 240 0 240 0 0 -120 0 -120 -457 -2 c-252 -2 -470 -2 -485 0 l-28 3 0 360 0 359 120 0 120 0 0 125 0 125 248 -2 247 -3 2 -105z"/>
  </g>
</svg>